{
  "getRequestDetails" : {
    "_id" : "wm-getRequestDetails-wm.ServiceVariable-1468920863726",
    "name" : "getRequestDetails",
    "owner" : "Page",
    "category" : "wm.ServiceVariable",
    "dataBinding" : [ {
      "target" : "id",
      "value" : "bind:Variables.selectedTripId.dataSet.dataValue",
      "type" : "integer"
    } ],
    "type" : "com.travel_advisor.travel_advisor_db.Requests",
    "service" : "TRAVEL_ADVISOR_DB",
    "operation" : "getRequests",
    "operationId" : "RequestsController_getRequests",
    "operationType" : "get",
    "serviceType" : "DataService",
    "dataSet" : [ ],
    "isList" : false,
    "maxResults" : 20,
    "designMaxResults" : 10,
    "startUpdate" : false,
    "autoUpdate" : true,
    "inFlightBehavior" : "executeLast",
    "transformationRequired" : false,
    "saveInPhonegap" : false,
    "controller" : "Requests"
  }
}