{
  "getDomesticAirports" : {
    "isList" : true,
    "inFlightBehavior" : "executeLast",
    "startUpdate" : true,
    "type" : "TRAVEL_ADVISOR_DBgetDomesticAirportsListrtnType",
    "serviceType" : "DataService",
    "transformationRequired" : false,
    "maxResults" : 20,
    "operationId" : "QueryExecutionController_executeGetDomesticAirportsList",
    "dataSet" : [ ],
    "operation" : "executeGetDomesticAirportsList",
    "category" : "wm.ServiceVariable",
    "autoUpdate" : true,
    "saveInPhonegap" : false,
    "_id" : "wm-getDomesticAirports-wm.ServiceVariable-1470035243742",
    "dataBinding" : [ {
      "value" : "bind:'%'+Widgets.mobile_navbar1.query+'%'",
      "target" : "searchParam",
      "type" : "string"
    }, {
      "value" : "bind:selectedAirport",
      "target" : "selectedAirport",
      "type" : "string"
    } ],
    "operationType" : "get",
    "designMaxResults" : 10,
    "name" : "getDomesticAirports",
    "owner" : "Page",
    "service" : "TRAVEL_ADVISOR_DB",
    "controller" : "QueryExecution"
  },
  "airportsList" : {
    "firstRow" : 0,
    "isList" : false,
    "bindCount" : 3,
    "package" : "com.travel_advisor.travel_advisor_db.Destinations",
    "type" : "Destinations",
    "startUpdate" : true,
    "ignoreCase" : true,
    "propertiesMap" : {
      "primaryFields" : [ "airportCode" ],
      "columns" : [ {
        "scale" : 0,
        "precision" : 19,
        "isRelated" : false,
        "isPrimaryKey" : true,
        "length" : 25,
        "generator" : "assigned",
        "columnName" : "AIRPORT_CODE",
        "notNull" : true,
        "type" : "string",
        "fieldName" : "airportCode",
        "fullyQualifiedType" : "string"
      }, {
        "scale" : 0,
        "precision" : 19,
        "isRelated" : false,
        "isPrimaryKey" : false,
        "length" : 255,
        "generator" : "assigned",
        "columnName" : "AIRPORT_NAME",
        "notNull" : false,
        "type" : "string",
        "fieldName" : "airportName",
        "fullyQualifiedType" : "string"
      }, {
        "scale" : 0,
        "precision" : 19,
        "isRelated" : false,
        "isPrimaryKey" : false,
        "length" : 20,
        "generator" : "assigned",
        "columnName" : "COUNTRY",
        "notNull" : false,
        "type" : "string",
        "fieldName" : "country",
        "fullyQualifiedType" : "string"
      }, {
        "scale" : 0,
        "precision" : 19,
        "isRelated" : false,
        "isPrimaryKey" : false,
        "length" : 255,
        "generator" : "assigned",
        "columnName" : "CITY",
        "defaultValue" : "",
        "notNull" : false,
        "type" : "string",
        "fieldName" : "city",
        "fullyQualifiedType" : "string"
      } ],
      "tableType" : "TABLE",
      "fullyQualifiedName" : "com.travel_advisor.travel_advisor_db.Destinations",
      "entityName" : "Destinations"
    },
    "transformationRequired" : false,
    "dataSet" : [ ],
    "operation" : "read",
    "saveInPhonegap" : false,
    "_id" : "wm-airportsList-wm.LiveVariable-1467966123518",
    "tableName" : "DESTINATIONS",
    "name" : "airportsList",
    "designMaxResults" : 10,
    "relatedTables" : [ ],
    "liveSource" : "TRAVEL_ADVISOR_DB",
    "inFlightBehavior" : "executeLast",
    "properties" : [ ],
    "maxResults" : 20,
    "matchMode" : "start",
    "category" : "wm.LiveVariable",
    "autoUpdate" : true,
    "dataBinding" : [ {
      "value" : "bind:Widgets.mobile_navbar1.query",
      "target" : "airportName",
      "type" : "string"
    }, {
      "value" : "India",
      "target" : "country",
      "type" : "string"
    } ],
    "filterFields" : { },
    "owner" : "Page",
    "tableType" : "TABLE"
  }
}